{
	"extName": {
		"message": "CardBook",
		"description": "Name of the extension - do NOT translate"
	},
	
	"extDesc": {
		"message": "vCard Adressebog",
		"description": "Description of the extension - do NOT translate"
	},
	
	"browserActionTitle": {
		"message": "CardBook",
		"description": "Skift til CardBook-fanen"
	}
}
